…
``` r
# 1. Load the package
library(Rparadox)

# 2. Get the path to an example database
# In a real scenario: db_path <- "path/to/your/data.db"
db_path <- system.file("extdata", "biolife.db", package = "Rparadox")

# 3. Read the data directly into a tibble
# This automatically finds 'biolife.mb' and handles data types.
biolife_data <- read_paradox(db_path)

# 4. View the data
print(biolife_data)
#> # A tibble: 28 × 8
#>    `Species No` Category      Common_Name `Species Name` `Length (cm)` Length_In
#>           <dbl> <chr>         <chr>       <chr>                  <dbl>     <dbl>
#>  1        90020 Triggerfish   Clown Trig… Ballistoides …            50     19.7 
#>  2        90030 Snapper       Red Emperor Lutjanus sebae            60     23.6 
#>  3        90050 Wrasse        Giant Maor… Cheilinus und…           229     90.2 
#>  4        90070 Angelfish     Blue Angel… Pomacanthus n…            30     11.8 
#>  5        90080 Cod           Lunartail … Variola louti             80     31.5 
#>  6        90090 Scorpionfish  Firefish    Pterois volit…            38     15.0 
#>  7        90100 Butterflyfish Ornate But… Chaetodon Orn…            19      7.48
#>  8        90110 Shark         Swell Shark Cephaloscylli…           102     40.2 
#>  9        90120 Ray           Bat Ray     Myliobatis ca…            56     22.0 
#> 10        90130 Eel           California… Gymnothorax m…           150     59.1 
#> # ℹ 18 more rows
#> # ℹ 2 more variables: Notes <chr>, Graphic <blob>
```
…
  # 4. Always close the file when you're done
  pxlib_close_file(pxdoc)
  
  print(data_table)
}
#> Encoding: CP437 
#> Number of records: 28 
#>           name   type size
#> 1   Species No Number    8
#> 2     Category  Alpha   15
#> 3  Common_Name  Alpha   30
#> 4 Species Name  Alpha   40
#> 5  Length (cm) Number    8
#> 6    Length_In Number    8
#> # A tibble: 28 × 8
#>    `Species No` Category      Common_Name `Species Name` `Length (cm)` Length_In
#>           <dbl> <chr>         <chr>       <chr>                  <dbl>     <dbl>
#>  1        90020 Triggerfish   Clown Trig… Ballistoides …            50     19.7 
#>  2        90030 Snapper       Red Emperor Lutjanus sebae            60     23.6 
#>  3        90050 Wrasse        Giant Maor… Cheilinus und…           229     90.2 
#>  4        90070 Angelfish     Blue Angel… Pomacanthus n…            30     11.8 
#>  5        90080 Cod           Lunartail … Variola louti             80     31.5 
#>  6        90090 Scorpionfish  Firefish    Pterois volit…            38     15.0 
#>  7        90100 Butterflyfish Ornate But… Chaetodon Orn…            19      7.48
#>  8        90110 Shark         Swell Shark Cephaloscylli…           102     40.2 
#>  9        90120 Ray           Bat Ray     Myliobatis ca…            56     22.0 
#> 10        90130 Eel           California… Gymnothorax m…           150     59.1 
#> # ℹ 18 more rows
#> # ℹ 2 more variables: Notes <chr>, Graphic <blob>
```
…
